vehicle #,orderId,seq
1,175,
1,176,
1,177,
1,178,
1,179,
2,180,
2,181,
2,182,
2,183,
2,184,
2,185,
2,186,
2,187,
2,188,
2,189,
2,190,
2,191,
2,192,
2,193,
2,194,
2,195,
2,196,
2,197,
3,198,
3,199,
3,200,
3,201,
3,202,
3,203,
3,204,
3,205,
3,206,
3,207,
3,208,
3,209,
3,210,
3,211,
3,212,
